<?xml version="1.0" encoding="UTF-8"?>
<svg width="50px" height="50px" viewBox="0 0 50 50" version="1.1" xmlns="http://www.w3.org/2000/svg" xmlns:xlink="http://www.w3.org/1999/xlink">
    <!-- Generator: sketchtool 48.2 (47327) - http://www.bohemiancoding.com/sketch -->
    <title>0A1C9C63-8F44-4ABE-8373-D58BA9F25B15</title>
    <desc>Created with sketchtool.</desc>
    <defs></defs>
    <g id="Symbols" stroke="none" stroke-width="1" fill="none" fill-rule="evenodd" stroke-linecap="round" stroke-linejoin="round">
        <g id="Rectangle-5-Copy-5" stroke="#4F5F72" stroke-width="2">
            <g id="Group-15" transform="translate(6.000000, 8.000000)">
                <path d="M34.2594894,30.2100976 C34.2594894,31.9830732 32.8583404,33.4201951 31.1297447,33.4201951 C29.4003404,33.4201951 28,31.9830732 28,30.2100976 C28,28.437122 29.4003404,27 31.1297447,27 C32.8583404,27 34.2594894,28.437122 34.2594894,30.2100976 Z" id="Stroke-1"></path>
                <path d="M14.2594894,30.2100976 C14.2594894,31.9830732 12.8583404,33.4201951 11.1297447,33.4201951 C9.40034043,33.4201951 8,31.9830732 8,30.2100976 C8,28.437122 9.40034043,27 11.1297447,27 C12.8583404,27 14.2594894,28.437122 14.2594894,30.2100976 Z" id="Stroke-3"></path>
                <path d="M30.6833857,11.0563902 L26,11 L26,30.5723902 L28.3605864,30.5723902 C28.3605864,28.1185854 29.6446091,27.3622927 31.2287063,27.3622927 C32.8128036,27.3622927 34.0968263,28.1185854 34.0968263,30.5723902 L36.2217986,30.5723902 C36.6307891,30.5723902 36.9627234,30.2017073 36.9627234,29.743122 L36.9627234,19.6028293 C36.9627234,19.4137561 36.9041903,19.2296585 36.798979,19.082878 L31.2531569,11.3657073 C31.113863,11.1724878 30.9049222,11.058878 30.6833857,11.0563902 Z" id="Stroke-5"></path>
                <path d="M3,4.82926829 L3,29.3449268 C3,29.8035122 3.36221277,30.1741951 3.80851064,30.1741951 L8.32485106,30.1741951 C8.34910638,27.7203902 9.73731915,27.0097073 11.4505532,27.0097073 C13.1637872,27.0097073 14.552,27.7203902 14.5754468,30.1741951 L26.1266383,30.1741951 L26.1266383,4.82926829 C26.1266383,4.37068293 25.765234,4 25.3181277,4 L3.80851064,4 C3.36221277,4 3,4.37068293 3,4.82926829 Z" id="Stroke-7"></path>
                <path d="M6,8 L18.1276596,8" id="Stroke-9"></path>
                <path d="M1,0 L14.7446809,0" id="Stroke-11"></path>
                <path d="M1,11 L12.3191489,11" id="Stroke-13"></path>
                <path d="M6,14 L8.42553191,14" id="Stroke-15"></path>
                <path d="M0,18 L8.08510638,18" id="Stroke-17"></path>
            </g>
        </g>
    </g>
</svg>