<?xml version="1.0" encoding="UTF-8"?>
<svg width="149px" height="46px" viewBox="0 0 149 46" version="1.1" xmlns="http://www.w3.org/2000/svg" xmlns:xlink="http://www.w3.org/1999/xlink">
    <!-- Generator: sketchtool 48.2 (47327) - http://www.bohemiancoding.com/sketch -->
    <title>D8DDF62E-FACC-46D6-8DAD-1FD42B046550</title>
    <desc>Created with sketchtool.</desc>
    <defs>
        <polygon id="path-1" points="0 0.630470849 21.5586666 0.630470849 21.5586666 21.0545997 0 21.0545997"></polygon>
        <polygon id="path-3" points="0.764129199 0.634829507 25.0072349 0.634829507 25.0072349 20.373831 0.764129199 20.373831"></polygon>
        <polygon id="path-5" points="0.790627326 0.634829507 19.1454408 0.634829507 19.1454408 20.3735301 0.790627326 20.3735301"></polygon>
        <polygon id="path-7" points="0.196994815 0 20.4113453 0 20.4113453 19.7630771 0.196994815 19.7630771"></polygon>
    </defs>
    <g id="Symbols" stroke="none" stroke-width="1" fill="none" fill-rule="evenodd">
        <g id="Group-2">
            <g id="Page-1">
                <g>
                    <path d="M30,0.000896654537 L12.7887722,0.000896654537 C10.6371163,-0.0336848951 8.60561389,0.931634361 8.25222132,2.96404143 L5,19 L20.8390549,12.7772972 L30,0.000896654537 Z" id="Fill-1" fill="#D92328"></path>
                    <g id="Group-5" transform="translate(0.000000, 24.000000)">
                        <mask id="mask-2" fill="white">
                            <use xlink:href="#path-1"></use>
                        </mask>
                        <g id="Clip-4"></g>
                        <path d="M3.26968285,-0.193315555 L0.0455609269,15.7885899 C-0.304691872,17.8402132 1.4126445,20.1911978 3.54210169,20.2311126 L21.5586666,20.2311126 L16.8397336,6.57724069 L3.26968285,-0.193315555 Z" id="Fill-3" fill="#D92328" mask="url(#mask-2)"></path>
                    </g>
                    <g id="Group-8" transform="translate(26.000000, 24.000000)">
                        <mask id="mask-4" fill="white">
                            <use xlink:href="#path-3"></use>
                        </mask>
                        <g id="Clip-7"></g>
                        <path d="M0.764129199,20.373831 L17.4371525,20.373831 C19.5303578,20.399913 21.5067833,18.7577548 21.8473094,16.699289 L25.0072349,0.634829507 L9.44214831,6.95167113 L0.764129199,20.373831 Z" id="Fill-6" fill="#D92328" mask="url(#mask-4)"></path>
                    </g>
                    <path d="M52.6625173,0 L34,0 L38.5736482,13.2204406 L52.5669789,20 L55.947413,3.78140766 C56.3011085,1.72935711 54.8334756,0.0329686798 52.6625173,0" id="Fill-9" fill="#D92328"></path>
                    <polygon id="Fill-11" fill="#D92328" points="31.534277 0 29 23 51 22.0355066 34.1274443 16.519087"></polygon>
                    <polygon id="Fill-13" fill="#D92328" points="5 22.961676 21.8394078 28.5367566 24.6642369 45 27 22"></polygon>
                    <path d="M112.306838,18.9557178 C112.42395,18.959654 113.490969,19 114.680105,19 C119.476687,19 120.404573,17.7118811 122.171261,14.6623161 C122.242329,14.5412782 122.321404,14.4015434 122.407486,14.249016 L122.464541,14.1437228 C124.109112,11.2850632 129.99073,0.607157655 129.99073,0.607157655 C130.055792,0.276517506 129.771521,0 129.353121,0 L125.820747,0 C125.400345,0 125.044005,0.259788689 124.838809,0.607157655 L117.48078,13.4037187 C117.065384,14.0059561 116.560902,14.3700539 115.455846,14.3739901 L112.93644,14.3739901 L114.240685,8.00818314 L115.787163,0.607157655 C115.856229,0.276517506 115.569955,0 115.148553,0 L111.702261,0 C111.283861,0 110.890485,0.276517506 110.823421,0.607157655 L108.186903,13.4037187 C107.426176,16.113787 109.024703,18.7717008 112.306838,18.9557178" id="Fill-15" fill="#D92328"></path>
                    <g id="Group-19" transform="translate(58.000000, 24.000000)">
                        <mask id="mask-6" fill="white">
                            <use xlink:href="#path-5"></use>
                        </mask>
                        <g id="Clip-18"></g>
                        <path d="M18.4872978,0.634829507 L2.33944106,0.634829507 C1.91463023,0.634829507 1.51000044,0.903673965 1.44441206,1.2527705 L0.800636983,4.43075276 C0.732021457,4.76881463 1.02363744,5.05471266 1.44643017,5.05471266 L7.45331584,5.05471266 L4.48266719,19.75589 C4.41001546,20.0919456 4.7026405,20.373831 5.12341512,20.373831 L8.56932719,20.373831 C8.99312897,20.373831 9.39574066,20.0919456 9.46233808,19.75589 L12.4339958,5.05471266 L17.6043775,5.05471266 C18.0271702,5.05471266 18.4297819,4.76881463 18.4994065,4.43075276 L19.1351091,1.2527705 C19.2047337,0.903673965 18.9151358,0.634829507 18.4872978,0.634829507" id="Fill-17" fill="#D92328" mask="url(#mask-6)"></path>
                    </g>
                    <path d="M138.701521,32.9979607 C138.296707,33.9411165 137.600189,33.8687229 136.355981,33.8564874 L131.937753,33.8564874 L132.789053,29.4414989 L137.733143,29.4598522 C138.054613,29.4598522 139.628228,29.2824369 139.45261,30.3163395 C139.39804,30.6314045 138.862256,32.6339536 138.701521,32.9979607 M143.890682,29.7677798 C144.508817,26.6242671 142.45002,25.0122355 139.119234,25 L129.486048,25 C129.072304,25 128.67642,25.2854958 128.610935,25.6240122 L125.008289,44.3719093 C124.947765,44.7134846 125.224586,45 125.646268,45 L129.009796,45 C129.431478,45 129.825378,44.7134846 129.888878,44.3719093 L131.054703,38.4030079 L135.376688,38.4030079 L137.796643,44.3474382 C137.867088,44.6920724 138.259996,44.9714504 138.678701,44.9714504 L142.271426,44.9714504 C142.696084,44.9714504 142.982827,44.6920724 142.912381,44.3474382 L140.154089,37.7728779 C142.678224,36.7094061 143.028468,34.2276319 143.890682,29.7677798" id="Fill-20" fill="#D92328"></path>
                    <g id="Group-24" transform="translate(128.000000, 0.000000)">
                        <mask id="mask-8" fill="white">
                            <use xlink:href="#path-7"></use>
                        </mask>
                        <g id="Clip-23"></g>
                        <path d="M14.2871102,10.0515727 L6.91383977,10.0515727 L7.39182009,7.71824352 C8.04143425,4.40985164 8.37572111,4.40383273 11.8233662,4.37072875 L15.4386536,4.37072875 L14.2871102,10.0515727 Z M16.2559102,0 L11.4631347,0 C6.05467265,0 3.71466463,1.98623891 2.90139959,5.66980925 L1.42854166,13.1192083 L0.209143028,19.1471425 C0.133304815,19.4842012 0.420691727,19.7630771 0.843789125,19.7630771 L4.19963005,19.7630771 C4.61574235,19.7630771 5.01289509,19.4842012 5.08274608,19.1471425 L5.96885572,14.70519 L13.3431241,14.70519 L12.7903034,17.449811 L12.4360591,19.1471425 C12.3711975,19.4842012 12.653595,19.7630771 13.0677116,19.7630771 L16.481429,19.7630771 C16.8995371,19.7630771 17.2966898,19.4842012 17.3665408,19.1471425 L17.4234195,18.845194 L17.4324003,18.845194 L20.3601545,4.37072875 C20.6684967,2.72857062 19.6237255,0.00601890579 16.2559102,0 Z" id="Fill-22" fill="#D92328" mask="url(#mask-8)"></path>
                    </g>
                    <g id="Group-27" transform="translate(102.000000, 25.000000)" fill="#D92328">
                        <path d="M20.9037655,0 L17.5479246,0 C17.126823,0 16.7276745,0.273860213 16.6608171,0.6239599 C16.6608171,0.6239599 14.4834621,11.4529746 14.3537388,12.0990038 C14.104271,13.3439141 13.4376931,15.0201794 11.5567058,15.0201794 L7.46643167,15.0201794 C5.44075309,15.0131573 5.30803621,14.1193498 5.54552957,12.7691086 C5.57845932,12.5835257 7.97335025,0.6239599 7.97335025,0.6239599 C8.04719272,0.273860213 7.75681219,0 7.34069989,0 L3.91500799,0 C3.49290846,0 3.0997472,0.273860213 3.02889834,0.6239599 C3.02889834,0.6239599 1.06808139,10.3043667 0.61804147,12.9316191 C-0.139342788,17.3515022 2.64272218,19.7450204 5.74111233,19.7450204 C6.42964347,19.7450204 11.1545637,19.7400047 11.1545637,19.7400047 L11.1545637,19.7279669 C15.6429885,19.5654564 18.343228,16.8017755 18.8870678,14.0280631 C19.3361099,11.7619451 21.5394095,0.6239599 21.5394095,0.6239599 C21.6092605,0.273860213 21.3208757,0 20.9037655,0" id="Fill-25"></path>
                    </g>
                    <path d="M80.3681253,0 L76.98641,0 C76.5715601,0 76.1842357,0.27976312 76.1173879,0.628956504 L73.920256,12.2523994 C73.920256,12.2523994 69.5279583,3.72268736 68.6019188,1.95834184 C67.6119806,0.0673881969 67.322962,0.0898509291 66.1265819,0.00510516643 L64.5143687,0.00510516643 C64.3895205,0.00510516643 64.2646723,0.0387992649 64.155553,0.0847457627 C63.9078227,0.200122524 63.7180928,0.395139882 63.6669738,0.628956504 L60.0090196,19.3741066 C59.9461039,19.7171738 60.2184106,20 60.6362098,20 L64.0198912,20 C64.4347411,20 64.8259977,19.7171738 64.8908795,19.3741066 L66.8058741,9.00040841 C66.8058741,9.00040841 70.7184401,16.3743108 71.8165145,18.435777 C72.6904519,20.0724934 73.071878,19.9877476 74.0824603,20 L76.5253564,20 C76.9362742,20 77.332446,19.7171738 77.3943786,19.3741066 L80.9904003,0.628956504 C81.0562651,0.27976312 80.7760939,0 80.3681253,0" id="Fill-28" fill="#D92328"></path>
                    <path d="M94.5757694,37.2693633 C94.0575989,39.8482721 92.583424,40.2197323 89.9453739,40.2197323 C87.7632336,40.2197323 83.9683378,40.236986 83.9683378,40.236986 C83.9683378,40.236986 84.9343843,35.597792 85.4113823,33.1609719 C85.993822,30.2126328 86.7178548,29.7082181 90.042782,29.7244568 C92.3614944,29.7366358 96.0589822,29.7244568 96.0589822,29.7244568 C96.0589822,29.7244568 95.0417211,34.9035876 94.5757694,37.2693633 M96.316059,25.0000097 C96.316059,25.0000097 93.3898017,25.0121887 89.2163201,25.0000097 C84.5547943,24.9939202 81.4538051,27.8570062 80.8874327,30.7485099 C80.3170435,33.634939 79.185303,39.2169926 79.185303,39.2169926 C78.4010178,42.1206753 80.14432,44.9594032 83.6941895,44.9594032 C83.6941895,44.9594032 87.1014616,45 91.0379504,45 C95.8079306,45 98.5554391,42.1095112 99.1228157,39.2169926 C99.6911965,36.3265037 100.816912,30.7485099 100.816912,30.7485099 C101.556008,27.6245898 100.057732,25.0243677 96.316059,25.0000097" id="Fill-30" fill="#D92328"></path>
                    <path d="M98.5697692,12.2715749 C98.0560086,14.847039 96.5780671,15.2180116 93.9358698,15.2180116 C91.7591737,15.2180116 87.9657907,15.2403716 87.9657907,15.2403716 C87.9657907,15.2403716 88.92595,10.600674 89.4055269,8.1675007 C89.990671,5.22106405 90.7115445,4.7098334 94.0404316,4.72406249 C96.3609002,4.74337338 100.052738,4.72406249 100.052738,4.72406249 C100.052738,4.72406249 99.0413028,9.90751434 98.5697692,12.2715749 M100.313137,6.75970833e-06 C100.313137,6.75970833e-06 97.387416,0.0111867539 93.2129855,6.75970833e-06 C88.5499295,-0.00507505583 85.4502741,2.85598709 84.8862434,5.75058923 C84.3141695,8.63502773 83.1871134,14.2209594 83.1871134,14.2209594 C82.3978726,17.1206433 84.1442565,19.9583291 87.6913159,19.9583291 C87.6913159,19.9583291 91.0935974,20 95.0357799,20 C99.8054086,20 102.547141,17.1104797 103.115193,14.2209594 C103.684251,11.3243245 104.818345,5.75058923 104.818345,5.75058923 C105.555305,2.6354363 104.049212,0.0223667481 100.313137,6.75970833e-06" id="Fill-32" fill="#D92328"></path>
                </g>
            </g>
        </g>
    </g>
</svg>