<?xml version="1.0" encoding="UTF-8"?>
<svg width="30px" height="30px" viewBox="0 0 30 30" version="1.1" xmlns="http://www.w3.org/2000/svg" xmlns:xlink="http://www.w3.org/1999/xlink">
    <!-- Generator: sketchtool 48.2 (47327) - http://www.bohemiancoding.com/sketch -->
    <title>C9D146A0-3DD3-4BA7-9E66-26E79E817909</title>
    <desc>Created with sketchtool.</desc>
    <defs>
        <polygon id="path-1" points="8.68326404e-05 0.0003 25.52085 0.0003 25.52085 19.6543 8.68326404e-05 19.6543"></polygon>
    </defs>
    <g id="Symbols" stroke="none" stroke-width="1" fill="none" fill-rule="evenodd">
        <g id="Rectangle-7-Copy-8">
            <g id="Page-1" transform="translate(2.000000, 5.000000)">
                <mask id="mask-2" fill="white">
                    <use xlink:href="#path-1"></use>
                </mask>
                <g id="Clip-2"></g>
                <path d="M18.9321,10.6968 L14.1001,5.8648 C13.8951,5.6598 13.5631,5.6598 13.3581,5.8648 C13.3331,5.8898 13.3211,5.9218 13.3021,5.9498 L10.5731,7.3798 C10.3771,7.4828 10.1531,7.4998 9.9431,7.4278 C9.7331,7.3558 9.5681,7.2048 9.4761,7.0028 C9.3071,6.6328 9.4411,6.1978 9.7871,5.9918 C10.5651,5.5278 11.2881,5.0368 11.9351,4.5338 C12.9621,3.7358 14.9721,4.7868 15.6611,5.2598 C15.8711,5.4038 16.1561,5.3768 16.3341,5.1938 L20.1501,1.2728 L24.2531,5.3758 L18.9321,10.6968 Z M20.2251,14.3778 C19.9831,14.6188 19.5631,14.6198 19.3221,14.3778 L18.5231,13.5798 L18.1771,13.2338 C17.9721,13.0288 17.6401,13.0288 17.4351,13.2338 C17.2301,13.4378 17.2301,13.7708 17.4351,13.9758 L17.7801,14.3208 C17.7801,14.3218 17.7811,14.3218 17.7811,14.3228 L18.2331,14.7738 L19.2721,15.8138 C19.3931,15.9338 19.4591,16.0938 19.4591,16.2648 C19.4591,16.4358 19.3931,16.5958 19.2721,16.7168 C19.0311,16.9588 18.6101,16.9578 18.3691,16.7168 L16.5311,14.8798 L16.0691,14.4178 C15.8641,14.2128 15.5321,14.2128 15.3271,14.4178 C15.1221,14.6228 15.1221,14.9548 15.3271,15.1598 L17.2801,17.1138 C17.4011,17.2338 17.4671,17.3938 17.4671,17.5648 C17.4671,17.7348 17.4011,17.8948 17.2801,18.0158 C17.0311,18.2638 16.6251,18.2648 16.3761,18.0158 L15.0581,16.6978 L14.4231,16.0628 L13.9611,15.6008 C13.7561,15.3958 13.4241,15.3958 13.2191,15.6008 C13.1951,15.6258 13.1831,15.6558 13.1641,15.6838 C13.1331,15.6458 13.1071,15.6058 13.0711,15.5698 L12.8951,15.3938 C12.6471,15.1458 12.3351,15.0038 12.0121,14.9578 C12.0421,14.8358 12.0621,14.7098 12.0621,14.5808 C12.0621,14.1628 11.9001,13.7698 11.6041,13.4748 L11.4281,13.2988 C11.2191,13.0888 10.9621,12.9568 10.6931,12.8908 C10.7731,12.4088 10.6311,11.8978 10.2611,11.5268 L10.0851,11.3508 C9.7271,10.9928 9.2141,10.8788 8.7301,10.9528 C8.6681,10.6708 8.5311,10.4028 8.3121,10.1828 L8.1371,10.0078 C7.5271,9.3968 6.5341,9.3968 5.9251,10.0078 L5.4131,10.5178 L1.2701,6.3738 L5.6671,2.0348 L7.6461,4.0138 C7.7781,4.1458 7.9701,4.1978 8.1491,4.1518 C8.1661,4.1468 9.4201,3.8338 10.9781,3.9318 C10.4441,4.3288 9.8711,4.7188 9.2501,5.0898 C8.4441,5.5698 8.1301,6.5788 8.5201,7.4378 C8.7291,7.8978 9.1231,8.2568 9.6021,8.4208 C10.0801,8.5858 10.6111,8.5448 11.0601,8.3098 L13.6851,6.9348 L19.0801,12.3298 L20.2251,13.4748 C20.4741,13.7238 20.4741,14.1288 20.2251,14.3778 Z M14.2731,18.3868 C14.0011,18.6598 13.5761,18.6788 13.3261,18.4308 L12.8741,17.9788 L13.0721,17.7818 C13.3831,17.4708 13.5331,17.0588 13.5261,16.6498 L13.6811,16.8048 L14.3161,17.4408 C14.5651,17.6898 14.5461,18.1148 14.2731,18.3868 Z M10.4651,18.1758 L10.2891,17.9998 C10.0891,17.7998 10.0891,17.4728 10.2891,17.2718 L11.4251,16.1368 C11.5261,16.0358 11.6581,15.9858 11.7891,15.9858 C11.9211,15.9858 12.0531,16.0358 12.1531,16.1358 L12.3281,16.3118 C12.5291,16.5128 12.5291,16.8398 12.3291,17.0398 L11.1931,18.1758 C10.9921,18.3768 10.6661,18.3758 10.4651,18.1758 Z M8.5571,16.5218 L8.3821,16.3458 C8.1811,16.1458 8.1811,15.8188 8.3811,15.6178 L9.9581,14.0408 C10.0591,13.9408 10.1901,13.8908 10.3221,13.8908 C10.4541,13.8908 10.5851,13.9408 10.6861,14.0408 L10.8621,14.2168 C10.9591,14.3148 11.0131,14.4438 11.0131,14.5808 C11.0131,14.7178 10.9591,14.8468 10.8621,14.9448 L9.2851,16.5218 C9.0841,16.7228 8.7581,16.7218 8.5571,16.5218 Z M6.6091,15.1778 L6.4331,15.0028 C6.2331,14.8018 6.2331,14.4758 6.4331,14.2748 L6.7351,13.9728 L8.3131,12.3958 C8.3141,12.3948 8.3141,12.3938 8.3151,12.3928 L8.6151,12.0928 C8.7151,11.9928 8.8471,11.9428 8.9791,11.9428 C9.1101,11.9428 9.2421,11.9928 9.3431,12.0928 L9.5181,12.2688 C9.7191,12.4698 9.7191,12.7958 9.5181,12.9968 L8.4271,14.0878 L7.6391,14.8758 L7.6381,14.8768 L7.3361,15.1778 C7.1411,15.3728 6.8041,15.3728 6.6091,15.1778 Z M4.9391,12.6908 C4.9391,12.5528 4.9931,12.4248 5.0901,12.3268 L6.6671,10.7498 C6.7641,10.6528 6.8931,10.5988 7.0311,10.5988 C7.1681,10.5988 7.2971,10.6528 7.3941,10.7498 L7.5701,10.9258 C7.7701,11.1258 7.7701,11.4528 7.5701,11.6538 L5.9931,13.2308 C5.7921,13.4308 5.4671,13.4308 5.2651,13.2308 L5.0901,13.0548 C4.9931,12.9568 4.9391,12.8278 4.9391,12.6908 Z M25.3671,5.0048 L20.5161,0.1538 C20.4181,0.0548 20.2841,-0.0002 20.1451,-0.0002 C19.9951,-0.0002 19.8671,0.0568 19.7681,0.1588 L15.8771,4.1578 C15.2941,3.8168 14.1331,3.2428 12.9841,3.2098 C10.9451,2.6218 8.9311,2.9198 8.1851,3.0688 L6.0401,0.9238 C5.8361,0.7198 5.5061,0.7188 5.3011,0.9218 L0.1561,5.9978 C0.0571,6.0958 0.0001,6.2298 0.0001,6.3698 C-0.0009,6.5098 0.0551,6.6438 0.1541,6.7428 L4.6711,11.2598 L4.3481,11.5838 C4.0521,11.8798 3.8891,12.2728 3.8891,12.6908 C3.8891,13.1088 4.0521,13.5018 4.3481,13.7968 L4.5231,13.9728 C4.7331,14.1828 4.9891,14.3148 5.2581,14.3808 C5.1781,14.8618 5.3201,15.3738 5.6911,15.7448 L5.8671,15.9208 C6.1621,16.2168 6.5551,16.3788 6.9731,16.3788 C7.0611,16.3788 7.1471,16.3678 7.2321,16.3538 C7.2971,16.6228 7.4301,16.8788 7.6391,17.0888 L7.8151,17.2638 C8.1191,17.5698 8.5201,17.7218 8.9211,17.7218 C8.9791,17.7218 9.0381,17.7118 9.0971,17.7048 C9.1131,18.0818 9.2601,18.4548 9.5471,18.7418 L9.7231,18.9188 C10.0281,19.2228 10.4291,19.3748 10.8291,19.3748 C11.2301,19.3748 11.6311,19.2228 11.9351,18.9178 L12.1321,18.7208 L12.5841,19.1728 C12.9051,19.4948 13.3301,19.6548 13.7601,19.6548 C14.2101,19.6548 14.6661,19.4788 15.0161,19.1298 C15.1921,18.9538 15.3221,18.7498 15.4101,18.5338 L15.6341,18.7588 C15.9531,19.0778 16.3771,19.2528 16.8281,19.2528 C17.2791,19.2528 17.7031,19.0778 18.0221,18.7588 C18.2561,18.5248 18.4111,18.2338 18.4781,17.9178 C18.5901,17.9408 18.7041,17.9538 18.8211,17.9538 C19.2711,17.9538 19.6961,17.7788 20.0151,17.4588 C20.3341,17.1398 20.5101,16.7158 20.5101,16.2648 C20.5101,15.9998 20.4421,15.7458 20.3271,15.5148 C20.5601,15.4348 20.7821,15.3068 20.9681,15.1198 C21.6261,14.4628 21.6261,13.3908 20.9681,12.7328 L19.8231,11.5878 L19.6741,11.4398 L25.3671,5.7468 C25.5721,5.5418 25.5721,5.2098 25.3671,5.0048 Z" id="Fill-1" fill="#000000" mask="url(#mask-2)"></path>
            </g>
        </g>
    </g>
</svg>