<?xml version="1.0" encoding="UTF-8"?>
<svg width="13px" height="13px" viewBox="0 0 13 13" version="1.1" xmlns="http://www.w3.org/2000/svg" xmlns:xlink="http://www.w3.org/1999/xlink">
    <!-- Generator: sketchtool 48.2 (47327) - http://www.bohemiancoding.com/sketch -->
    <title>E1F19DF4-92C9-45DD-A595-FC9418491154</title>
    <desc>Created with sketchtool.</desc>
    <defs></defs>
    <g id="Rectangle-3" stroke="none" stroke-width="1" fill="none" fill-rule="evenodd" transform="translate(-3.000000, -4.000000)">
        <polygon id="Star-Copy" stroke="#979797" points="9.5 13.75 5.67939586 15.7586105 6.40906632 11.5043052 3.31813264 8.49138954 7.58969793 7.87069477 9.5 4 11.4103021 7.87069477 15.6818674 8.49138954 12.5909337 11.5043052 13.3206041 15.7586105"></polygon>
    </g>
</svg>